{
    "orgName": "Ci Example Two2",
    "edition": "Developer", 

    "features": ["Communities", "ServiceCloud", "Chatbot"],
    "settings": {
         "omniChannelSettings": {
              "enableOmniChannel": true
     }
  } 
}